aes_128_lab2_v2/aes_tb.vcd
$date
	Wed Apr 12 09:58:22 2023
$end

$version
	Synopsys VCS version T-2022.06_Full64
$end

$timescale
	1ps
$end

$comment Csum: 1 cf8ee13ab7d89291 $end


$scope module aes_tb $end
$var reg 1 ! clk $end
$var reg 1 " rst_ $end
$var wire 1 # ok $end
$var wire 1 $ ready $end
$var wire 1 % e128 $end
$var integer 32 & i $end

$scope module u1 $end
$var wire 1 ' clk $end
$var wire 1 ( rst_ $end
$var wire 1 $ ready $end
$var wire 1 % e128 $end
$var reg 1 ) ok $end
$var wire 128 * input_key [127:0] $end
$var wire 128 + plain_text [127:0] $end
$var wire 128 , cipher_text [127:0] $end
$var wire 128 - pre_round [127:0] $end
$var reg 1 . plain_ok_ $end
$var reg 1 / key_ok_ $end
$var reg 1 0 complt_ $end
$var reg 4 1 key_count [3:0] $end
$var reg 4 2 plain_count [3:0] $end
$var reg 128 3 final_out_reg [127:0] $end
$var reg 2 4 cmd [1:0] $end
$var reg 128 5 key_reg [127:0] $end
$var reg 128 6 state_reg [127:0] $end
$var reg 4 7 round_cnt [3:0] $end
$var reg 4 8 output_cnt [3:0] $end
$var wire 128 9 round_key_out [127:0] $end
$var wire 128 : round_state_out [127:0] $end
$var reg 2 ; state_cnt [1:0] $end
$var wire 128 < expected128 [127:0] $end
$var reg 11 = count [10:0] $end

$scope module r $end
$var wire 1 > clk $end
$var wire 4 ? rc [3:0] $end
$var wire 128 @ data [127:0] $end
$var wire 128 A keyin [127:0] $end
$var wire 128 9 keyout [127:0] $end
$var wire 128 : rndout [127:0] $end
$var wire 128 B sb [127:0] $end
$var wire 128 C sr [127:0] $end
$var wire 128 D mcl [127:0] $end

$scope module t0 $end
$var wire 4 ? rc [3:0] $end
$var wire 128 A key [127:0] $end
$var wire 128 9 keyout [127:0] $end
$var wire 32 E w0 [31:0] $end
$var wire 32 F w1 [31:0] $end
$var wire 32 G w2 [31:0] $end
$var wire 32 H w3 [31:0] $end
$var wire 32 I tem [31:0] $end

$scope function rcon $end
$var reg 32 J rcon [31:0] $end
$var reg 4 K rc [3:0] $end
$upscope $end


$scope module a1 $end
$var wire 8 L a [7:0] $end
$var reg 8 M c [7:0] $end
$upscope $end


$scope module a2 $end
$var wire 8 N a [7:0] $end
$var reg 8 O c [7:0] $end
$upscope $end


$scope module a3 $end
$var wire 8 P a [7:0] $end
$var reg 8 Q c [7:0] $end
$upscope $end


$scope module a4 $end
$var wire 8 R a [7:0] $end
$var reg 8 S c [7:0] $end
$upscope $end

$upscope $end


$scope module t1 $end
$var wire 128 @ data [127:0] $end
$var wire 128 B sb [127:0] $end
$upscope $end


$scope module t2 $end
$var wire 128 B sb [127:0] $end
$var wire 128 C sr [127:0] $end
$upscope $end


$scope module t3 $end
$var wire 128 C a [127:0] $end
$var wire 128 D mcl [127:0] $end

$scope function mixcolumn32 $end
$var reg 8 T mixcolumn32 [7:0] $end
$var reg 8 U i1 [7:0] $end
$var reg 8 V i2 [7:0] $end
$var reg 8 W i3 [7:0] $end
$var reg 8 X i4 [7:0] $end
$upscope $end

$upscope $end

$upscope $end

$upscope $end

$upscope $end

$enddefinitions $end

#0
$dumpvars
0!
x0
x%
x/
x#
x.
z>
x$
1"
bxxxxxxxxxxxxxxxxxxxxxxxxxxxxxxxx I
x)
1(
b00111010110101111000111001110010011011000001111011000000001010110111111010111111111010010010101100100011110110011110110000110100 ,
bxx 4
bxxxxxxxxxxx =
bxxxxxxxxxxxxxxxxxxxxxxxxxxxxxxxxxxxxxxxxxxxxxxxxxxxxxxxxxxxxxxxxxxxxxxxxxxxxxxxxxxxxxxxxxxxxxxxxxxxxxxxxxxxxxxxxxxxxxxxxxxxxxxxx @
bzzzzzzzzzzzzzzzzzzzzzzzzzzzzzzzzzzzzzzzzzzzzzzzzzzzzzzzzzzzzzzzzzzzzzzzzzzzzzzzzzzzzzzzzzzzzzzzzzzzzzzzzzzzzzzzzzzzzzzzzzzzzzzzz <
bxxxxxxxxxxxxxxxxxxxxxxxxxxxxxxxxxxxxxxxxxxxxxxxxxxxxxxxxxxxxxxxxxxxxxxxxxxxxxxxxxxxxxxxxxxxxxxxxxxxxxxxxxxxxxxxxxxxxxxxxxxxxxxxx 3
b00000000000000000000000000000000 &
b00000000000000000000000000000000000000000000000000000000000000000000000000000000000000000000000000000000000000000000000000000000 *
bxxxx 1
bxxxxxxxxxxxxxxxxxxxxxxxxxxxxxxxxxxxxxxxxxxxxxxxxxxxxxxxxxxxxxxxxxxxxxxxxxxxxxxxxxxxxxxxxxxxxxxxxxxxxxxxxxxxxxxxxxxxxxxxxxxxxxxxx 5
bxxxxxxxxxxxxxxxxxxxxxxxxxxxxxxxxxxxxxxxxxxxxxxxxxxxxxxxxxxxxxxxxxxxxxxxxxxxxxxxxxxxxxxxxxxxxxxxxxxxxxxxxxxxxxxxxxxxxxxxxxxxxxxxx A
bxxxxxxxxxxxxxxxxxxxxxxxxxxxxxxxxxxxxxxxxxxxxxxxxxxxxxxxxxxxxxxxxxxxxxxxxxxxxxxxxxxxxxxxxxxxxxxxxxxxxxxxxxxxxxxxxxxxxxxxxxxxxxxxx D
bxxxxxxxx U
bxxxxxxxx V
bxxxxxxxx W
bxxxxxxxx X
bxxxxxxxx T
bxxxx 8
bxxxx 2
b10000000000000000000000000000000000000000000000000000000000000000000000000000000000000000000000000000000000000000000000000000000 +
bxxxxxxxxxxxxxxxxxxxxxxxxxxxxxxxxxxxxxxxxxxxxxxxxxxxxxxxxxxxxxxxxxxxxxxxxxxxxxxxxxxxxxxxxxxxxxxxxxxxxxxxxxxxxxxxxxxxxxxxxxxxxxxxx -
bxxxx ?
b00000000000000000000000000000000 J
bxxxx K
bxxxx 7
bxxxxxxxxxxxxxxxxxxxxxxxxxxxxxxxxxxxxxxxxxxxxxxxxxxxxxxxxxxxxxxxxxxxxxxxxxxxxxxxxxxxxxxxxxxxxxxxxxxxxxxxxxxxxxxxxxxxxxxxxxxxxxxxx 9
bxxxxxxxxxxxxxxxxxxxxxxxxxxxxxxxxxxxxxxxxxxxxxxxxxxxxxxxxxxxxxxxxxxxxxxxxxxxxxxxxxxxxxxxxxxxxxxxxxxxxxxxxxxxxxxxxxxxxxxxxxxxxxxxx :
bxxxxxxxxxxxxxxxxxxxxxxxxxxxxxxxxxxxxxxxxxxxxxxxxxxxxxxxxxxxxxxxxxxxxxxxxxxxxxxxxxxxxxxxxxxxxxxxxxxxxxxxxxxxxxxxxxxxxxxxxxxxxxxxx B
bxxxxxxxxxxxxxxxxxxxxxxxxxxxxxxxxxxxxxxxxxxxxxxxxxxxxxxxxxxxxxxxxxxxxxxxxxxxxxxxxxxxxxxxxxxxxxxxxxxxxxxxxxxxxxxxxxxxxxxxxxxxxxxxx C
bxx ;
bxxxxxxxxxxxxxxxxxxxxxxxxxxxxxxxxxxxxxxxxxxxxxxxxxxxxxxxxxxxxxxxxxxxxxxxxxxxxxxxxxxxxxxxxxxxxxxxxxxxxxxxxxxxxxxxxxxxxxxxxxxxxxxxx 6
bxxxxxxxxxxxxxxxxxxxxxxxxxxxxxxxx E
bxxxxxxxxxxxxxxxxxxxxxxxxxxxxxxxx F
bxxxxxxxxxxxxxxxxxxxxxxxxxxxxxxxx G
bxxxxxxxxxxxxxxxxxxxxxxxxxxxxxxxx H
bxxxxxxxx M
bxxxxxxxx O
bxxxxxxxx Q
bxxxxxxxx S
bxxxxxxxx L
bxxxxxxxx N
bxxxxxxxx P
bxxxxxxxx R
0'
$end
#5000
1!
1'
#10000
0!
0'
#15000
1!
1'
#20000
0"
0(
0!
0'
b0000 7
b0000 ?
b0000 K
b00 ;
1$
1.
1/
10
b0000 1
b0000 2
0)
0#
b0000 8
b00000000000000000000000000000000000000000000000000000000000000000000000000000000000000000000000000000000000000000000000000000000 3
0%
b11 4
b00000000000 =
#25000
1!
1'
#30000
0!
0'
#35000
1!
1'
#40000
1"
1(
0!
0'
#45000
1!
1'
b01 ;
0$
#50000
0!
0'
#55000
1!
1'
b10000000000000000000000000000000000000000000000000000000000000000000000000000000000000000000000000000000000000000000000000000000 6
b10000000000000000000000000000000000000000000000000000000000000000000000000000000000000000000000000000000000000000000000000000000 @
b00 ;
1$
b10 4
b11001101011000110110001101100011011000110110001101100011011000110110001101100011011000110110001101100011011000110110001101100011 B
b11001101011000110110001101100011011000110110001101100011011000110110001101100011011000110110001101100011011000110110001101100011 C
b01100011 U
b01100011 V
b01100011 W
b01100011 X
b01100011 T
b11001101 V
b10001010 T
b01100011 V
b11001101 W
b11001101 T
b01100011 W
b11001101 X
b11001101 U
b01100011 X
b00100100 T
b00100100110011011100110110001010011000110110001101100011011000110110001101100011011000110110001101100011011000110110001101100011 D
#60000
0!
0'
#65000
1!
1'
b10 ;
0$
#70000
0!
0'
#75000
1!
1'
b00000000000000000000000000000000000000000000000000000000000000000000000000000000000000000000000000000000000000000000000000000000 5
b00000000000000000000000000000000000000000000000000000000000000000000000000000000000000000000000000000000000000000000000000000000 A
b00000000 P
b00000000 N
b00000000 L
b00000000 R
b00000000000000000000000000000000 E
b00000000000000000000000000000000 F
b00000000000000000000000000000000 G
b00000000000000000000000000000000 H
b10000000000000000000000000000000000000000000000000000000000000000000000000000000000000000000000000000000000000000000000000000000 -
b00 ;
1$
b01 4
b01100011 Q
b01100011 O
b01100011 M
b01100011 S
b01100011011000110110001101100011 I
b01100011011000110110001101100011011000110110001101100011011000110110001101100011011000110110001101100011011000110110001101100011 9
b01000111101011101010111011101001000000000000000000000000000000000000000000000000000000000000000000000000000000000000000000000000 :
#80000
0!
0'
#85000
1!
1'
b11 ;
0$
#90000
0!
0'
#95000
1!
1'
b0001 7
b0001 ?
b0001 K
b00000001000000000000000000000000 J
b01100010011000110110001101100011011000100110001101100011011000110110001001100011011000110110001101100010011000110110001101100011 9
b01000110101011101010111011101001000000010000000000000000000000000000000100000000000000000000000000000001000000000000000000000000 :
#100000
0!
0'
#105000
1!
1'
b01000110101011101010111011101001000000010000000000000000000000000000000100000000000000000000000000000001000000000000000000000000 6
b01000110101011101010111011101001000000010000000000000000000000000000000100000000000000000000000000000001000000000000000000000000 @
b00100100110011011100110110001010011000110110001101100011011000110110001101100011011000110110001101100011011000110110001101100011 -
b01100010011000110110001101100011011000100110001101100011011000110110001001100011011000110110001101100010011000110110001101100011 5
b01100010011000110110001101100011011000100110001101100011011000110110001001100011011000110110001101100010011000110110001101100011 A
b01100011 P
b01100011 N
b01100011 L
b01100010 R
b01100010011000110110001101100011 E
b01100010011000110110001101100011 F
b01100010011000110110001101100011 G
b01100010011000110110001101100011 H
b0010 7
b0010 ?
b0010 K
b00000010000000000000000000000000 J
b01011010111001001110010000011110011111000110001101100011011000110111110001100011011000110110001101111100011000110110001101100011 B
b11111011 Q
b11111011 O
b11111011 M
b10101010 S
b01011010011000110110001101100011011111000110001101100011000111100111110001100011111001000110001101111100111001000110001101100011 C
b01100011 U
b01111100 V
b11100100 W
b11000101 T
b01100011 V
b01111100 W
b11100100 X
b11111011 T
b11100100 U
b01100011 W
b01111100 X
b01101001 T
b01111100 U
b11100100 V
b01100011 X
b11001111 T
b01100011 U
b01111100 V
b11100100 X
b11000101 T
b11100100 U
b01100011 V
b01111100 W
b01100011 X
b01101001 T
b01100011 U
b11100100 V
b01100011 W
b01111100 X
b11101110 T
b01111100 U
b01100011 V
b11100100 W
b01100011 X
b11011010 T
b00011110 U
b01111100 V
b01100011 W
b10111000 T
b01100011 U
b00011110 V
b01111100 W
b11111011 T
b01100011 V
b00011110 W
b01111100 X
b00000001 T
b01111100 U
b01100011 W
b00011110 X
b00100000 T
b01100011 U
b01011010 V
b01100011 X
b00101000 T
b01100011 V
b01011010 W
b01011010 T
b01100011 W
b01011010 X
b01011010 U
b01100011 X
b00010001 T
b00000011000000000000000000000000011000010110001101100011011000110000001100000000000000000000000001100001011000110110001101100011 9
b11111011111110111111101110101010 I
b00100111110011011100110110001010000000100000000000000000000000000110000001100011011000110110001100000010000000000000000000000000 :
b10011011100110001001100011001001111110011111101111111011101010101001101110011000100110001100100111111001111110111111101110101010 9
b00010001010110100101101000101000001000000000000111111011101110001101101011101110011010011100010111001111011010011111101111000101 D
b10001010110000101100001011100001110110011111101000000000000100100100000101110110111100010000110000110110100100100000000001101111 :
#110000
0!
0'
#115000
1!
1'
b10001010110000101100001011100001110110011111101000000000000100100100000101110110111100010000110000110110100100100000000001101111 6
b10001010110000101100001011100001110110011111101000000000000100100100000101110110111100010000110000110110100100100000000001101111 @
b00010001010110100101101000101000001000000000000111111011101110001101101011101110011010011100010111001111011010011111101111000101 -
b10011011100110001001100011001001111110011111101111111011101010101001101110011000100110001100100111111001111110111111101110101010 5
b10011011100110001001100011001001111110011111101111111011101010101001101110011000100110001100100111111001111110111111101110101010 A
b10101010 P
b11111011 N
b11111011 L
b11111001 R
b10011011100110001001100011001001 E
b11111001111110111111101110101010 F
b10011011100110001001100011001001 G
b11111001111110111111101110101010 H
b0011 7
b0011 ?
b0011 K
b00000100000000000000000000000000 J
b01111110001001010010010111111000001101010010110101100011110010011000001100111000101000011111111000000101010011110110001110101000 B
b10101100 Q
b00001111 O
b00001111 M
b10011001 S
b01111110001011011010000110101000001101010011100001100011111110001000001101001111001001011100100100000101001001010110001111111110 C
b11111110 U
b00000101 V
b00100101 W
b10101110 T
b01100011 U
b11111110 V
b00000101 W
b00100101 X
b11111111 T
b00100101 U
b01100011 V
b11111110 W
b00000101 X
b00010100 T
b00000101 U
b00100101 V
b01100011 W
b11111110 X
b11111000 T
b11001001 U
b10000011 V
b01001111 W
b00100101 X
b01111101 T
b00100101 U
b11001001 V
b10000011 W
b01001111 X
b11000110 T
b01001111 U
b00100101 V
b11001001 W
b10000011 X
b10111011 T
b10000011 U
b01001111 V
b00100101 W
b11001001 X
b00100000 T
b11111000 U
b00110101 V
b00111000 W
b01100011 X
b11101111 T
b01100011 U
b11111000 V
b00110101 W
b00111000 X
b11011000 T
b00111000 U
b01100011 V
b11111000 W
b00110101 X
b00011000 T
b00110101 U
b00111000 V
b01100011 W
b11111000 X
b10111001 T
b10101000 U
b01111110 V
b00101101 W
b10100001 X
b01000101 T
b10100001 U
b10101000 V
b01111110 W
b00101101 X
b11101001 T
b00101101 U
b10100001 V
b10101000 W
b01111110 X
b01110100 T
b01111110 U
b00101101 V
b10100001 W
b10101000 X
b10000010 T
b01100100011000110110001101100011100111011001100010011000110010010000011000000000000000000000000011111111111110111111101110101010 9
b00001111000011111010110010011001 I
b01110101001110010011100101001011101111011001100101100011011100011101110011101110011010011100010100110000100100100000000001101111 :
b10010000100101110011010001010000011010010110110011001111111110101111001011110100010101110011001100001011000011111010110010011001 9
b10000010011101001110100101000101101110010001100011011000111011110010000010111011110001100111110111111000000101001111111110101110 D
b00010010111000111101110100010101110100000111010000010111000101011101001001001111100100010100111011110011000110110101001100110111 :
#120000
0!
0'
#125000
1!
1'
b00010010111000111101110100010101110100000111010000010111000101011101001001001111100100010100111011110011000110110101001100110111 6
b00010010111000111101110100010101110100000111010000010111000101011101001001001111100100010100111011110011000110110101001100110111 @
b10000010011101001110100101000101101110010001100011011000111011110010000010111011110001100111110111111000000101001111111110101110 -
b10010000100101110011010001010000011010010110110011001111111110101111001011110100010101110011001100001011000011111010110010011001 5
b10010000100101110011010001010000011010010110110011001111111110101111001011110100010101110011001100001011000011111010110010011001 A
b10011001 P
b10101100 N
b00001111 L
b00001011 R
b10010000100101110011010001010000 E
b01101001011011001100111111111010 F
b11110010111101000101011100110011 G
b00001011000011111010110010011001 H
b0100 7
b0100 ?
b0100 K
b00001000000000000000000000000000 J
b11001001000100011100000101011001011100001001001011110000010110011011010110000100100000010010111100001101101011111110110110011010 B
b11101110 Q
b10010001 O
b01110110 M
b00101011 S
b11001001100100101000000110011010011100001000010011101101010110011011010110101111110000010101100100001101000100011111000000101111 C
b00101111 U
b00001101 V
b00010001 W
b11110000 X
b10101000 T
b11110000 U
b00101111 V
b00001101 W
b00010001 X
b10010110 T
b00010001 U
b11110000 V
b00101111 W
b00001101 X
b00001011 T
b00001101 U
b00010001 V
b11110000 W
b00101111 X
b11110110 T
b01011001 U
b10110101 V
b10101111 W
b11000001 X
b00011000 T
b11000001 U
b01011001 V
b10110101 W
b10101111 X
b01101000 T
b10101111 U
b11000001 V
b01011001 W
b10110101 X
b11110001 T
b10110101 U
b10101111 V
b11000001 W
b01011001 X
b00000011 T
b01011001 U
b01110000 V
b10000100 W
b11101101 X
b01001011 T
b11101101 U
b01011001 V
b01110000 W
b10000100 X
b11011110 T
b10000100 U
b11101101 V
b01011001 W
b01110000 X
b00010110 T
b01110000 U
b10000100 V
b11101101 W
b01011001 X
b11000011 T
b10011010 U
b11001001 V
b10010010 W
b10000001 X
b01111100 T
b10000001 U
b10011010 V
b11001001 W
b10010010 X
b11110111 T
b10010010 U
b10000001 V
b10011010 W
b11001001 X
b11110100 T
b11001001 U
b10010010 V
b10000001 W
b10011010 X
b00111111 T
b10010111100110001001100011001001111111101111010001010111001100110000110000000000000000000000000000000111000011111010110010011001 9
b01110110100100011110111000101011 I
b00010101111011000111000110001100010001111110110010001111110111000010110010111011110001100111110111111111000110110101001100110111 :
b11101110000001101101101001111011100001110110101000010101100000010111010110011110010000101011001001111110100100011110111000101011 9
b00111111111101001111011101111100110000110001011011011110010010110000001111110001011010000001100011110110000010111001011010101000 D
b11010001111100100010110100000111010001000111110011001011110010100111011001101111001010101010101010001000100110100111100010000011 :
#130000
0!
0'
#135000
1!
1'
b11010001111100100010110100000111010001000111110011001011110010100111011001101111001010101010101010001000100110100111100010000011 6
b11010001111100100010110100000111010001000111110011001011110010100111011001101111001010101010101010001000100110100111100010000011 @
b00111111111101001111011101111100110000110001011011011110010010110000001111110001011010000001100011110110000010111001011010101000 -
b11101110000001101101101001111011100001110110101000010101100000010111010110011110010000101011001001111110100100011110111000101011 5
b11101110000001101101101001111011100001110110101000010101100000010111010110011110010000101011001001111110100100011110111000101011 A
b00101011 P
b11101110 N
b10010001 L
b01111110 R
b11101110000001101101101001111011 E
b10000111011010100001010110000001 F
b01110101100111100100001010110010 G
b01111110100100011110111000101011 H
b0101 7
b0101 ?
b0101 K
b00010000000000000000000000000000 J
b00111110100010011101100011000101000110110001000000011111011101000011100010101000111001011010110011000100101110001011110011101100 B
b11110001 Q
b00101000 O
b10000001 M
b11110011 S
b00111110000100001110010111101100000110111010100010111100110001010011100010111000110110000111010011000100100010010001111110101100 C
b10101100 U
b11000100 V
b10001001 W
b00011111 X
b10000010 T
b00011111 U
b10101100 V
b11000100 W
b10001001 X
b10011100 T
b10001001 U
b00011111 V
b10101100 W
b11000100 X
b01000000 T
b11000100 U
b10001001 V
b00011111 W
b10101100 X
b10100000 T
b01110100 U
b00111000 V
b10111000 W
b11011000 X
b11000000 T
b11011000 U
b01110100 V
b00111000 W
b10111000 X
b10110111 T
b10111000 U
b11011000 V
b01110100 W
b00111000 X
b01010100 T
b00111000 U
b10111000 V
b11011000 W
b01110100 X
b00001111 T
b11000101 U
b00011011 V
b10101000 W
b10111100 X
b10101000 T
b10111100 U
b11000101 V
b00011011 W
b10101000 X
b10000100 T
b10101000 U
b10111100 V
b11000101 W
b00011011 X
b01001010 T
b00011011 U
b10101000 V
b10111100 W
b11000101 X
b10101100 T
b11101100 U
b00111110 V
b00010000 W
b11100101 X
b01110100 T
b11100101 U
b11101100 V
b00111110 W
b00010000 X
b11010000 T
b00010000 U
b11100101 V
b11101100 W
b00111110 X
b11000110 T
b00111110 U
b00010000 V
b11100101 W
b11101100 X
b01000101 T
b10001000100101110011010001010000000011111111110100100001110100010111101001100011011000110110001100000100111100101000110101001000 9
b10000001001010001111000111110011 I
b10110111011000111100001100101100110011001110101111111111100110100111100110010010000010110111101111110010111110010001101111100000 :
b01111111001011100010101110001000111110000100010000111110000010011000110111011010011111001011101111110011010010111001001010010000 9
b01000101110001101101000001110100101011000100101010000100101010000000111101010100101101111100000010100000010000001001110010000010 D
b00111010111010001111101111111100010101000000111010111010101000011000001010001110110010110111101101010011000010110000111000010010 :
#140000
0!
0'
#145000
1!
1'
b00111010111010001111101111111100010101000000111010111010101000011000001010001110110010110111101101010011000010110000111000010010 6
b00111010111010001111101111111100010101000000111010111010101000011000001010001110110010110111101101010011000010110000111000010010 @
b01000101110001101101000001110100101011000100101010000100101010000000111101010100101101111100000010100000010000001001110010000010 -
b01111111001011100010101110001000111110000100010000111110000010011000110111011010011111001011101111110011010010111001001010010000 5
b01111111001011100010101110001000111110000100010000111110000010011000110111011010011111001011101111110011010010111001001010010000 A
b10010000 P
b10010010 N
b01001011 L
b11110011 R
b01111111001011100010101110001000 E
b11111000010001000011111000001001 F
b10001101110110100111110010111011 G
b11110011010010111001001010010000 H
b0110 7
b0110 ?
b0110 K
b00100000000000000000000000000000 J
b10000000100110110000111110110000001000001010101111110100001100100001001100011001000111110010000111101101001010111010101111001001 B
b01100000 Q
b01001111 O
b10110011 M
b00001101 S
b10000000101010110001111111001001001000000001100110101011101100000001001100101011000011110011001011101101100110111111010000100001 C
b00100001 U
b11101101 V
b10011011 W
b11110100 X
b00000001 T
b11110100 U
b00100001 V
b11101101 W
b10011011 X
b11100110 T
b10011011 U
b11110100 V
b00100001 W
b11101101 X
b11101101 U
b10011011 V
b11110100 W
b00100001 X
b10100010 T
b00110010 U
b00010011 V
b00101011 W
b00001111 X
b01110101 T
b00001111 U
b00110010 V
b00010011 W
b00101011 X
b01110000 T
b00101011 U
b00001111 V
b00110010 W
b00010011 X
b01100110 T
b00010011 U
b00101011 V
b00001111 W
b00110010 X
b10110000 U
b00100000 V
b00011001 W
b10101011 X
b10101001 T
b10101011 U
b10110000 V
b00100000 W
b00011001 X
b10111111 T
b00011001 U
b10101011 V
b10110000 W
b00100000 X
b01000100 T
b00100000 U
b00011001 V
b10101011 W
b10110000 X
b01110000 T
b11001001 U
b10000000 V
b00011111 X
b10100110 T
b00011111 U
b11001001 V
b10000000 W
b10101011 X
b01010101 T
b10101011 U
b00011111 V
b11001001 W
b10000000 X
b00100101 T
b10000000 U
b10101011 V
b00011111 W
b11001001 X
b00101011 T
b11011110000001101101101001111011001001100100001011100100011100101010101110011000100110001100100101011000110100110000101001011001 9
b10110011010011110110000000001101 I
b10011011110000000000101000001111100010100000100001100000110110101010010011001100001011110000100111111000100100111001011011011011 :
b11101100011000010100101110000101000101000010010101110101100011001001100111111111000010010011011101101010101101001001101110100111 9
b00101011001001010101010110100110011100000100010010111111101010010110011001100110011100000111010110100010111001101110011000000001 D
b11000111010001000001111000100011011001000110000111001010001001011111111110011001011110010100001011001000010100100111110110100110 :
#150000
0!
0'
#155000
1!
1'
b11000111010001000001111000100011011001000110000111001010001001011111111110011001011110010100001011001000010100100111110110100110 6
b11000111010001000001111000100011011001000110000111001010001001011111111110011001011110010100001011001000010100100111110110100110 @
b00101011001001010101010110100110011100000100010010111111101010010110011001100110011100000111010110100010111001101110011000000001 -
b11101100011000010100101110000101000101000010010101110101100011001001100111111111000010010011011101101010101101001001101110100111 5
b11101100011000010100101110000101000101000010010101110101100011001001100111111111000010010011011101101010101101001001101110100111 A
b10100111 P
b10011011 N
b10110100 L
b01101010 R
b11101100011000010100101110000101 E
b00010100001001010111010110001100 F
b10011001111111110000100100110111 G
b01101010101101001001101110100111 H
b0111 7
b0111 ?
b0111 K
b01000000000000000000000000000000 J
b11000110000110110111001000100110010000111110111101110100001111110001011011101110101101100010110011101000000000001111111100100100 B
b01011100 Q
b00010100 O
b10001101 M
b00000010 S
b11000110111011111011011000100100010000111110111011111111001001100001011000000000011100100011111111101000000110110111010000101100 C
b00101100 U
b11101000 V
b00011011 W
b01110100 X
b00010100 T
b01110100 U
b00101100 V
b11101000 W
b00011011 X
b01101111 T
b00011011 U
b01110100 V
b00101100 W
b11101000 X
b01101110 T
b11101000 U
b00011011 V
b01110100 W
b00101100 X
b10111110 T
b00111111 U
b00010110 V
b00000000 W
b01110010 X
b00110110 T
b01110010 U
b00111111 V
b00010110 W
b00000000 X
b10110011 T
b00000000 U
b01110010 V
b00111111 W
b00010110 X
b10111111 T
b00010110 U
b00000000 V
b01110010 W
b00111111 X
b01100001 T
b00100110 U
b01000011 V
b11101110 W
b11111111 X
b10011000 T
b11111111 U
b00100110 V
b01000011 W
b11101110 X
b00100010 T
b11101110 U
b11111111 V
b00100110 W
b01000011 X
b10111000 T
b01000011 U
b11101110 V
b11111111 W
b00100110 X
b01110110 T
b00100100 U
b11000110 V
b11101111 W
b10110110 X
b01000000 T
b10110110 U
b00100100 V
b11000110 W
b11101111 X
b00110010 T
b11101111 U
b10110110 V
b00100100 W
b11000110 X
b11100110 T
b11000110 U
b11101111 V
b10110110 W
b00100100 X
b00101111 T
b00011111001011100010101110001000000010110000101101011110000001001001001011110100010101110011001111111000010000001100110010010100 9
b10001101000101000101110000000010 I
b00110100000010110111111000101110011110110100111111100001101011011111010010010010001001110100011001011010101001100010101010010101 :
b00100001011101010001011110000111001101010101000001100010000010111010110010101111011010110011110011000110000110111111000010011011 9
b00101111111001100011001001000000011101101011100000100010100110000110000110111111101100110011011010111110011011100110111100010100 D
b00001110100100110010010111000111010000111110100001000000100100111100110100010000110110000000101001111000011101011001111110001111 :
#160000
0!
0'
#165000
1!
1'
b00001110100100110010010111000111010000111110100001000000100100111100110100010000110110000000101001111000011101011001111110001111 6
b00001110100100110010010111000111010000111110100001000000100100111100110100010000110110000000101001111000011101011001111110001111 @
b00101111111001100011001001000000011101101011100000100010100110000110000110111111101100110011011010111110011011100110111100010100 -
b00100001011101010001011110000111001101010101000001100010000010111010110010101111011010110011110011000110000110111111000010011011 5
b00100001011101010001011110000111001101010101000001100010000010111010110010101111011010110011110011000110000110111111000010011011 A
b10011011 P
b11110000 N
b00011011 L
b11000110 R
b00100001011101010001011110000111 E
b00110101010100000110001000001011 F
b10101100101011110110101100111100 G
b11000110000110111111000010011011 H
b1000 7
b1000 ?
b1000 K
b10000000000000000000000000000000 J
b10101011110111000011111111000110000110101001101100001001110111001011110111001010011000010110011110111100100111011101101101110011 B
b00010100 Q
b10001100 O
b10101111 M
b10110100 S
b10101011100110110110000101110011000110101100101011011011110001101011110110011101001111111101110010111100110111000000100101100111 C
b01100111 U
b10111100 V
b11011100 W
b00001001 X
b11000100 T
b00001001 U
b01100111 V
b10111100 W
b11011100 X
b11011011 T
b11011100 U
b00001001 V
b01100111 W
b10111100 X
b01100011 T
b10111100 U
b11011100 V
b00001001 W
b01100111 X
b01110010 T
b11011100 U
b10111101 V
b10011101 W
b00111111 X
b11011101 T
b00111111 U
b11011100 V
b10111101 W
b10011101 X
b00100001 T
b10011101 U
b00111111 V
b11011100 W
b10111101 X
b00000001 T
b10111101 U
b10011101 V
b00111111 W
b11011100 X
b00111110 T
b11000110 U
b00011010 V
b11001010 W
b11011011 X
b10101000 T
b11011011 U
b11000110 V
b00011010 W
b11001010 X
b00101100 T
b11001010 U
b11011011 V
b11000110 W
b00011010 X
b00100101 T
b00011010 U
b11001010 V
b11011011 W
b11000110 X
b01101100 T
b01110011 U
b10101011 V
b10011011 W
b01100001 X
b11111010 T
b01100001 U
b01110011 V
b10101011 W
b10011011 X
b01100111 T
b10011011 U
b01100001 V
b01110011 W
b10101011 X
b01010110 T
b10101011 U
b10011011 V
b01100001 W
b01110011 X
b11101001 T
b00101100011000010100101110000101000110010011000100101001100011101011010110011110010000101011001001110011100001011011001000101001 9
b10101111100011000001010010110100 I
b00000011100001110111100111000101011011111000100100001011000101101101010000100001111100011000010011001101111010111101110100111101 :
b00001110111110010000001100110011001110111010100101100001001110001001011100000110000010100000010001010001000111011111101010011111 9
b11101001010101100110011111111010011011000010010100101100101010000011111000000001001000011101110101110010011000111101101111000100 D
b11100111101011110110010011001001010101111000110001001101100100001010100100000111001010111101100100100011011111100010000101011011 :
#170000
0!
0'
